[
  {
    "_id": "org1-id-apiary1",
    "organizationId": "org1-id",
    "name": "Apiary 1"
  },
  {
    "_id": "org1-id-apiary2",
    "organizationId": "org1-id",
    "name": "Apiary "
  },
  {
    "_id": "org2-id-apiary1",
    "organizationId": "org2-id",
    "name": "Apiary 1"
  }
]
